{
  "files": [{
    "type": "VIDEO",
    "sources": {
      "h264": {
        "source": "/bundles/sonic/videos/pop_feliz_final_1920.mp4",
        "size": 46791680
      }
    }
  }, {
    "type": "VIDEO",
    "sources": {
      "h264": {
        "source": "/bundles/sonic/videos/pop_triste_final_1920.mp4",
        "size": 47141888
      }
    }
  }, {
    "type": "AUDIO",
    "sources": {
      "mp3": {
        "source": "/bundles/sonic/videos/sonic_hollaback.mp3",
        "size": 1592320
      }
    }
  }]
}