{
  "files": [{
    "type": "VIDEO",
    "sources": {
      "h264": {
        "source": "/bundles/sonic/videos/cumbia/cumbia_feliz.mp4",
        "size": 46791680
      }
    }
  }, {
    "type": "VIDEO",
    "sources": {
      "h264": {
        "source": "/bundles/sonic/videos/cumbia/cumbia_triste.mp4",
        "size": 47141888
      }
    }
  }, {
    "type": "AUDIO",
    "sources": {
      "mp3": {
        "source": "/bundles/sonic/videos/cumbia/cumbia_mix.mp3",
        "size": 1592320
      }
    }
  }]
}