{
    "files": [{
            "type": "VIDEO",
            "sources": {
                "h264": {
                    "source": "/bundles/sonic/videos/pop_feliz_final_1280.mp4",
                    "size": 35273728
                }
            }
        }, {
            "type": "VIDEO",
            "sources": {
                "mp3": {
                    "source": "/bundles/sonic/videos/pop_triste_final_1280.mp4",
                    "size": 1592320
                }
            }
        }, {
            "type": "AUDIO",
            "sources": {
                "mp3": {
                    "source": "/bundles/sonic/videos/cumbia/cumbia_mix.mp3",
                    "size": 1592320
                }
            }
        }]
}